-mode=RANDOM -n=other-networks

---- Lightest path compression ---- 
Max node compression: 0.9832214765100671
Min node compression: 0.4172813487881981
Max  arc compression: 0.9836956521739131
Min  arc compression: 0.461044912923923
Avg node compression: 0.6815115604137503
Avg  arc compression: 0.6917339324054966


---- Preprocessing compression ---- 
Max node compression: 0.9863481228668942
Min node compression: 0.6501580611169653
Max  arc compression: 0.9948186528497409
Min  arc compression: 0.5444813584348468
Avg node compression: 0.82730804980633
Avg  arc compression: 0.763112461190205
Finished at Sun Sep 30 11:06:14 CEST 2012


