Started at Mon Jul 16 23:14:42 WEST 2012
Computing BNS+stories for 0 files in the folder other-networks
Analysing the results for 960 files in the folder other-networks
Analysing file ACYPI.xml_0_138_1.sim_LP_S.cn
Analysing file ACYPI.xml_0_138_2.sim_LP_S.cn
Analysing file ACYPI.xml_0_138_3.sim_LP_S.cn
Analysing file ACYPI.xml_0_46_1.sim_LP_S.cn
Analysing file ACYPI.xml_0_46_2.sim_LP_S.cn
Analysing file ACYPI.xml_0_46_3.sim_LP_S.cn
Analysing file ACYPI.xml_0_46_4.sim_LP_S.cn
Analysing file ACYPI.xml_0_46_5.sim_LP_S.cn
Analysing file ACYPI.xml_0_92_1.sim_LP_S.cn
Analysing file ACYPI.xml_0_92_2.sim_LP_S.cn
Analysing file ACYPI.xml_0_92_3.sim_LP_S.cn
Analysing file ACYPI.xml_0_92_4.sim_LP_S.cn
Analysing file ACYPI.xml_0_92_5.sim_LP_S.cn
Analysing file ACYPIBUCA.xml_0_111_1.sim_LP_S.cn
Analysing file ACYPIBUCA.xml_0_111_2.sim_LP_S.cn
Analysing file ACYPIBUCA.xml_0_111_3.sim_LP_S.cn
Analysing file ACYPIBUCA.xml_0_166_1.sim_LP_S.cn
Analysing file ACYPIBUCA.xml_0_166_2.sim_LP_S.cn
Analysing file ACYPIBUCA.xml_0_55_1.sim_LP_S.cn
Analysing file ACYPIBUCA.xml_0_55_2.sim_LP_S.cn
Analysing file ACYPIBUCA.xml_0_55_3.sim_LP_S.cn
Analysing file AERS4332.xml_0_104_1.sim_LP_S.cn
Analysing file AERS4332.xml_0_104_2.sim_LP_S.cn
Analysing file AERS4332.xml_0_104_3.sim_LP_S.cn
Analysing file AERS4332.xml_0_157_1.sim_LP_S.cn
Analysing file AERS4332.xml_0_157_2.sim_LP_S.cn
Analysing file AERS4332.xml_0_157_3.sim_LP_S.cn
Analysing file AERS4332.xml_0_52_1.sim_LP_S.cn
Analysing file AERS4332.xml_0_52_2.sim_LP_S.cn
Analysing file AERS4332.xml_0_52_3.sim_LP_S.cn
Analysing file ARA.xml_0_143_1.sim_LP_S.cn
Analysing file ARA.xml_0_143_2.sim_LP_S.cn
Analysing file ARA.xml_0_143_3.sim_LP_S.cn
Analysing file ARA.xml_0_215_1.sim_LP_S.cn
Analysing file ARA.xml_0_215_2.sim_LP_S.cn
Analysing file ARA.xml_0_215_3.sim_LP_S.cn
Analysing file ARA.xml_0_71_1.sim_LP_S.cn
Analysing file ARA.xml_0_71_2.sim_LP_S.cn
Analysing file ARA.xml_0_71_3.sim_LP_S.cn
Analysing file BACAA57.xml_0_132_1.sim_LP_S.cn
Analysing file BACAA57.xml_0_132_2.sim_LP_S.cn
Analysing file BACAA57.xml_0_132_3.sim_LP_S.cn
Analysing file BACAA57.xml_0_44_1.sim_LP_S.cn
Analysing file BACAA57.xml_0_44_2.sim_LP_S.cn
Analysing file BACAA57.xml_0_44_3.sim_LP_S.cn
Analysing file BACAA57.xml_0_88_1.sim_LP_S.cn
Analysing file BACAA57.xml_0_88_2.sim_LP_S.cn
Analysing file BACAA57.xml_0_88_3.sim_LP_S.cn
Analysing file BACFZ295.xml_0_106_1.sim_LP_S.cn
Analysing file BACFZ295.xml_0_106_2.sim_LP_S.cn
Analysing file BACFZ295.xml_0_35_1.sim_LP_S.cn
Analysing file BACFZ295.xml_0_35_2.sim_LP_S.cn
Analysing file BACFZ295.xml_0_35_3.sim_LP_S.cn
Analysing file BACFZ295.xml_0_70_1.sim_LP_S.cn
Analysing file BACFZ295.xml_0_70_2.sim_LP_S.cn
Analysing file BACFZ295.xml_0_70_3.sim_LP_S.cn
Analysing file BACHK64.xml_0_138_1.sim_LP_S.cn
Analysing file BACHK64.xml_0_138_2.sim_LP_S.cn
Analysing file BACHK64.xml_0_138_3.sim_LP_S.cn
Analysing file BACHK64.xml_0_46_1.sim_LP_S.cn
Analysing file BACHK64.xml_0_46_2.sim_LP_S.cn
Analysing file BACHK64.xml_0_46_3.sim_LP_S.cn
Analysing file BACHK64.xml_0_92_1.sim_LP_S.cn
Analysing file BACHK64.xml_0_92_2.sim_LP_S.cn
Analysing file BACHK64.xml_0_92_3.sim_LP_S.cn
Analysing file BACSU7.xml_0_122_1.sim_LP_S.cn
Analysing file BACSU7.xml_0_122_2.sim_LP_S.cn
Analysing file BACSU7.xml_0_122_3.sim_LP_S.cn
Analysing file BACSU7.xml_0_40_1.sim_LP_S.cn
Analysing file BACSU7.xml_0_40_2.sim_LP_S.cn
Analysing file BACSU7.xml_0_40_3.sim_LP_S.cn
Analysing file BACSU7.xml_0_81_1.sim_LP_S.cn
Analysing file BACSU7.xml_0_81_2.sim_LP_S.cn
Analysing file BACSU7.xml_0_81_3.sim_LP_S.cn
Analysing file BAR10333.xml_0_22_1.sim_LP_S.cn
Analysing file BAR10333.xml_0_22_2.sim_LP_S.cn
Analysing file BAR10333.xml_0_22_3.sim_LP_S.cn
Analysing file BAR10333.xml_0_44_1.sim_LP_S.cn
Analysing file BAR10333.xml_0_44_2.sim_LP_S.cn
Analysing file BAR10333.xml_0_44_3.sim_LP_S.cn
Analysing file BAR10333.xml_0_66_1.sim_LP_S.cn
Analysing file BAR10333.xml_0_66_2.sim_LP_S.cn
Analysing file BAR10333.xml_0_66_3.sim_LP_S.cn
Analysing file BARHE206.xml_0_22_1.sim_LP_S.cn
Analysing file BARHE206.xml_0_22_2.sim_LP_S.cn
Analysing file BARHE206.xml_0_22_3.sim_LP_S.cn
Analysing file BARHE206.xml_0_44_1.sim_LP_S.cn
Analysing file BARHE206.xml_0_44_2.sim_LP_S.cn
Analysing file BARHE206.xml_0_44_3.sim_LP_S.cn
Analysing file BARHE206.xml_0_66_1.sim_LP_S.cn
Analysing file BARHE206.xml_0_66_2.sim_LP_S.cn
Analysing file BARHE206.xml_0_66_3.sim_LP_S.cn
Analysing file BARKC205.xml_0_20_1.sim_LP_S.cn
Analysing file BARKC205.xml_0_20_2.sim_LP_S.cn
Analysing file BARKC205.xml_0_20_3.sim_LP_S.cn
Analysing file BARKC205.xml_0_40_1.sim_LP_S.cn
Analysing file BARKC205.xml_0_40_2.sim_LP_S.cn
Analysing file BARKC205.xml_0_40_3.sim_LP_S.cn
Analysing file BARKC205.xml_0_60_1.sim_LP_S.cn
Analysing file BARKC205.xml_0_60_2.sim_LP_S.cn
Analysing file BARKC205.xml_0_60_3.sim_LP_S.cn
Analysing file BARQU207.xml_0_22_1.sim_LP_S.cn
Analysing file BARQU207.xml_0_22_2.sim_LP_S.cn
Analysing file BARQU207.xml_0_22_3.sim_LP_S.cn
Analysing file BARQU207.xml_0_44_1.sim_LP_S.cn
Analysing file BARQU207.xml_0_44_2.sim_LP_S.cn
Analysing file BARQU207.xml_0_44_3.sim_LP_S.cn
Analysing file BARQU207.xml_0_66_1.sim_LP_S.cn
Analysing file BARQU207.xml_0_66_2.sim_LP_S.cn
Analysing file BARQU207.xml_0_66_3.sim_LP_S.cn
Analysing file BAUCH280.xml_0_18_1.sim_LP_S.cn
Analysing file BAUCH280.xml_0_18_2.sim_LP_S.cn
Analysing file BAUCH280.xml_0_18_3.sim_LP_S.cn
Analysing file BAUCH280.xml_0_37_1.sim_LP_S.cn
Analysing file BAUCH280.xml_0_37_2.sim_LP_S.cn
Analysing file BAUCH280.xml_0_37_3.sim_LP_S.cn
Analysing file BAUCH280.xml_0_55_1.sim_LP_S.cn
Analysing file BAUCH280.xml_0_55_2.sim_LP_S.cn
Analysing file BAUCH280.xml_0_55_3.sim_LP_S.cn
Analysing file BBGB680.xml_0_19_1.sim_LP_S.cn
Analysing file BBGB680.xml_0_19_2.sim_LP_S.cn
Analysing file BBGB680.xml_0_19_3.sim_LP_S.cn
Analysing file BBGB680.xml_0_38_1.sim_LP_S.cn
Analysing file BBGB680.xml_0_38_2.sim_LP_S.cn
Analysing file BBGB680.xml_0_38_3.sim_LP_S.cn
Analysing file BBGB680.xml_0_57_1.sim_LP_S.cn
Analysing file BBGB680.xml_0_57_2.sim_LP_S.cn
Analysing file BBGB680.xml_0_57_3.sim_LP_S.cn
Analysing file BRABT106.xml_0_113_1.sim_LP_S.cn
Analysing file BRABT106.xml_0_113_2.sim_LP_S.cn
Analysing file BRABT106.xml_0_113_3.sim_LP_S.cn
Analysing file BRABT106.xml_0_170_1.sim_LP_S.cn
Analysing file BRABT106.xml_0_170_2.sim_LP_S.cn
Analysing file BRABT106.xml_0_170_3.sim_LP_S.cn
Analysing file BRABT106.xml_0_56_1.sim_LP_S.cn
Analysing file BRABT106.xml_0_56_2.sim_LP_S.cn
Analysing file BRABT106.xml_0_56_3.sim_LP_S.cn
Analysing file BRAJA100.xml_0_113_1.sim_LP_S.cn
Analysing file BRAJA100.xml_0_113_2.sim_LP_S.cn
Analysing file BRAJA100.xml_0_113_3.sim_LP_S.cn
Analysing file BRAJA100.xml_0_170_1.sim_LP_S.cn
Analysing file BRAJA100.xml_0_170_2.sim_LP_S.cn
Analysing file BRAJA100.xml_0_170_3.sim_LP_S.cn
Analysing file BRAJA100.xml_0_56_1.sim_LP_S.cn
Analysing file BRAJA100.xml_0_56_2.sim_LP_S.cn
Analysing file BRAJA100.xml_0_56_3.sim_LP_S.cn
Analysing file BRUME578.xml_0_135_1.sim_LP_S.cn
Analysing file BRUME578.xml_0_135_2.sim_LP_S.cn
Analysing file BRUME578.xml_0_135_3.sim_LP_S.cn
Analysing file BRUME578.xml_0_45_1.sim_LP_S.cn
Analysing file BRUME578.xml_0_45_2.sim_LP_S.cn
Analysing file BRUME578.xml_0_45_3.sim_LP_S.cn
Analysing file BRUME578.xml_0_90_1.sim_LP_S.cn
Analysing file BRUME578.xml_0_90_2.sim_LP_S.cn
Analysing file BRUME578.xml_0_90_3.sim_LP_S.cn
Analysing file BUCAI84.xml_0_17_1.sim_LP_S.cn
Analysing file BUCAI84.xml_0_17_2.sim_LP_S.cn
Analysing file BUCAI84.xml_0_17_3.sim_LP_S.cn
Analysing file BUCAI84.xml_0_34_1.sim_LP_S.cn
Analysing file BUCAI84.xml_0_34_2.sim_LP_S.cn
Analysing file BUCAI84.xml_0_34_3.sim_LP_S.cn
Analysing file BUCAI84.xml_0_51_1.sim_LP_S.cn
Analysing file BUCAI84.xml_0_51_2.sim_LP_S.cn
Analysing file BUCAI84.xml_0_51_3.sim_LP_S.cn
Analysing file BUCAIREVISED.xml_0_17_1.sim_LP_S.cn
Analysing file BUCAIREVISED.xml_0_17_2.sim_LP_S.cn
Analysing file BUCAIREVISED.xml_0_17_3.sim_LP_S.cn
Analysing file BUCAIREVISED.xml_0_35_1.sim_LP_S.cn
Analysing file BUCAIREVISED.xml_0_35_2.sim_LP_S.cn
Analysing file BUCAIREVISED.xml_0_35_3.sim_LP_S.cn
Analysing file BUCAIREVISED.xml_0_52_1.sim_LP_S.cn
Analysing file BUCAIREVISED.xml_0_52_2.sim_LP_S.cn
Analysing file BUCAIREVISED.xml_0_52_3.sim_LP_S.cn
Analysing file BUCAP86.xml_0_16_1.sim_LP_S.cn
Analysing file BUCAP86.xml_0_16_2.sim_LP_S.cn
Analysing file BUCAP86.xml_0_16_3.sim_LP_S.cn
Analysing file BUCAP86.xml_0_32_1.sim_LP_S.cn
Analysing file BUCAP86.xml_0_32_2.sim_LP_S.cn
Analysing file BUCAP86.xml_0_32_3.sim_LP_S.cn
Analysing file BUCAP86.xml_0_49_1.sim_LP_S.cn
Analysing file BUCAP86.xml_0_49_2.sim_LP_S.cn
Analysing file BUCAP86.xml_0_49_3.sim_LP_S.cn
Analysing file BUCBP85.xml_0_14_1.sim_LP_S.cn
Analysing file BUCBP85.xml_0_14_2.sim_LP_S.cn
Analysing file BUCBP85.xml_0_14_3.sim_LP_S.cn
Analysing file BUCBP85.xml_0_29_1.sim_LP_S.cn
Analysing file BUCBP85.xml_0_29_2.sim_LP_S.cn
Analysing file BUCBP85.xml_0_29_3.sim_LP_S.cn
Analysing file BUCBP85.xml_0_44_1.sim_LP_S.cn
Analysing file BUCBP85.xml_0_44_2.sim_LP_S.cn
Analysing file BUCBP85.xml_0_44_3.sim_LP_S.cn
Analysing file BUCCC279.xml_0_16_1.sim_LP_S.cn
Analysing file BUCCC279.xml_0_16_2.sim_LP_S.cn
Analysing file BUCCC279.xml_0_16_3.sim_LP_S.cn
Analysing file BUCCC279.xml_0_24_1.sim_LP_S.cn
Analysing file BUCCC279.xml_0_24_2.sim_LP_S.cn
Analysing file BUCCC279.xml_0_24_3.sim_LP_S.cn
Analysing file BUCCC279.xml_0_8_1.sim_LP_S.cn
Analysing file BUCCC279.xml_0_8_2.sim_LP_S.cn
Analysing file BUCCC279.xml_0_8_3.sim_LP_S.cn
Analysing file BURMA89.xml_0_105_1.sim_LP_S.cn
Analysing file BURMA89.xml_0_105_2.sim_LP_S.cn
Analysing file BURMA89.xml_0_105_3.sim_LP_S.cn
Analysing file BURMA89.xml_0_158_1.sim_LP_S.cn
Analysing file BURMA89.xml_0_158_2.sim_LP_S.cn
Analysing file BURMA89.xml_0_158_3.sim_LP_S.cn
Analysing file BURMA89.xml_0_52_1.sim_LP_S.cn
Analysing file BURMA89.xml_0_52_2.sim_LP_S.cn
Analysing file BURMA89.xml_0_52_3.sim_LP_S.cn
Analysing file CAMJE46.xml_0_27_1.sim_LP_S.cn
Analysing file CAMJE46.xml_0_27_2.sim_LP_S.cn
Analysing file CAMJE46.xml_0_27_3.sim_LP_S.cn
Analysing file CAMJE46.xml_0_55_1.sim_LP_S.cn
Analysing file CAMJE46.xml_0_55_2.sim_LP_S.cn
Analysing file CAMJE46.xml_0_55_3.sim_LP_S.cn
Analysing file CAMJE46.xml_0_83_1.sim_LP_S.cn
Analysing file CAMJE46.xml_0_83_2.sim_LP_S.cn
Analysing file CAMJE46.xml_0_83_3.sim_LP_S.cn
Analysing file CAMJR118.xml_0_27_1.sim_LP_S.cn
Analysing file CAMJR118.xml_0_27_2.sim_LP_S.cn
Analysing file CAMJR118.xml_0_27_3.sim_LP_S.cn
Analysing file CAMJR118.xml_0_54_1.sim_LP_S.cn
Analysing file CAMJR118.xml_0_54_2.sim_LP_S.cn
Analysing file CAMJR118.xml_0_54_3.sim_LP_S.cn
Analysing file CAMJR118.xml_0_81_1.sim_LP_S.cn
Analysing file CAMJR118.xml_0_81_2.sim_LP_S.cn
Analysing file CAMJR118.xml_0_81_3.sim_LP_S.cn
Analysing file CANBP282.xml_0_19_1.sim_LP_S.cn
Analysing file CANBP282.xml_0_19_2.sim_LP_S.cn
Analysing file CANBP282.xml_0_19_3.sim_LP_S.cn
Analysing file CANBP282.xml_0_38_1.sim_LP_S.cn
Analysing file CANBP282.xml_0_38_2.sim_LP_S.cn
Analysing file CANBP282.xml_0_38_3.sim_LP_S.cn
Analysing file CANBP282.xml_0_57_1.sim_LP_S.cn
Analysing file CANBP282.xml_0_57_2.sim_LP_S.cn
Analysing file CANBP282.xml_0_57_3.sim_LP_S.cn
Analysing file CANFL281.xml_0_18_1.sim_LP_S.cn
Analysing file CANFL281.xml_0_18_2.sim_LP_S.cn
Analysing file CANFL281.xml_0_18_3.sim_LP_S.cn
Analysing file CANFL281.xml_0_37_1.sim_LP_S.cn
Analysing file CANFL281.xml_0_37_2.sim_LP_S.cn
Analysing file CANFL281.xml_0_37_3.sim_LP_S.cn
Analysing file CANFL281.xml_0_55_1.sim_LP_S.cn
Analysing file CANFL281.xml_0_55_2.sim_LP_S.cn
Analysing file CANFL281.xml_0_55_3.sim_LP_S.cn
Analysing file CANGW378.xml_0_11_1.sim_LP_S.cn
Analysing file CANGW378.xml_0_11_2.sim_LP_S.cn
Analysing file CANGW378.xml_0_11_3.sim_LP_S.cn
Analysing file CANGW378.xml_0_17_1.sim_LP_S.cn
Analysing file CANGW378.xml_0_17_2.sim_LP_S.cn
Analysing file CANGW378.xml_0_17_3.sim_LP_S.cn
Analysing file CANGW378.xml_0_5_1.sim_LP_S.cn
Analysing file CANGW378.xml_0_5_2.sim_LP_S.cn
Analysing file CANGW378.xml_0_5_3.sim_LP_S.cn
Analysing file CANRU286.xml_0_12_1.sim_LP_S.cn
Analysing file CANRU286.xml_0_12_2.sim_LP_S.cn
Analysing file CANRU286.xml_0_12_3.sim_LP_S.cn
Analysing file CANRU286.xml_0_18_1.sim_LP_S.cn
Analysing file CANRU286.xml_0_18_2.sim_LP_S.cn
Analysing file CANRU286.xml_0_18_3.sim_LP_S.cn
Analysing file CANRU286.xml_0_6_1.sim_LP_S.cn
Analysing file CANRU286.xml_0_6_2.sim_LP_S.cn
Analysing file CANRU286.xml_0_6_3.sim_LP_S.cn
Analysing file CHLAMY.xml_0_121_1.sim_LP_S.cn
Analysing file CHLAMY.xml_0_121_2.sim_LP_S.cn
Analysing file CHLAMY.xml_0_121_3.sim_LP_S.cn
Analysing file CHLAMY.xml_0_181_1.sim_LP_S.cn
Analysing file CHLAMY.xml_0_181_2.sim_LP_S.cn
Analysing file CHLAMY.xml_0_181_3.sim_LP_S.cn
Analysing file CHLAMY.xml_0_60_1.sim_LP_S.cn
Analysing file CHLAMY.xml_0_60_2.sim_LP_S.cn
Analysing file CHLAMY.xml_0_60_3.sim_LP_S.cn
Analysing file CHLTR15.xml_0_13_1.sim_LP_S.cn
Analysing file CHLTR15.xml_0_13_2.sim_LP_S.cn
Analysing file CHLTR15.xml_0_13_3.sim_LP_S.cn
Analysing file CHLTR15.xml_0_27_1.sim_LP_S.cn
Analysing file CHLTR15.xml_0_27_2.sim_LP_S.cn
Analysing file CHLTR15.xml_0_27_3.sim_LP_S.cn
Analysing file CHLTR15.xml_0_41_1.sim_LP_S.cn
Analysing file CHLTR15.xml_0_41_2.sim_LP_S.cn
Analysing file CHLTR15.xml_0_41_3.sim_LP_S.cn
Analysing file CORGB246.xml_0_21_1.sim_LP_S.cn
Analysing file CORGB246.xml_0_21_2.sim_LP_S.cn
Analysing file CORGB246.xml_0_21_3.sim_LP_S.cn
Analysing file CORGB246.xml_0_43_1.sim_LP_S.cn
Analysing file CORGB246.xml_0_43_2.sim_LP_S.cn
Analysing file CORGB246.xml_0_43_3.sim_LP_S.cn
Analysing file CORGB246.xml_0_65_1.sim_LP_S.cn
Analysing file CORGB246.xml_0_65_2.sim_LP_S.cn
Analysing file CORGB246.xml_0_65_3.sim_LP_S.cn
Analysing file DESPS65.xml_0_103_1.sim_LP_S.cn
Analysing file DESPS65.xml_0_103_2.sim_LP_S.cn
Analysing file DESPS65.xml_0_103_3.sim_LP_S.cn
Analysing file DESPS65.xml_0_34_1.sim_LP_S.cn
Analysing file DESPS65.xml_0_34_2.sim_LP_S.cn
Analysing file DESPS65.xml_0_34_3.sim_LP_S.cn
Analysing file DESPS65.xml_0_69_1.sim_LP_S.cn
Analysing file DESPS65.xml_0_69_2.sim_LP_S.cn
Analysing file DESPS65.xml_0_69_3.sim_LP_S.cn
Analysing file DROME.xml_0_125_1.sim_LP_S.cn
Analysing file DROME.xml_0_125_2.sim_LP_S.cn
Analysing file DROME.xml_0_125_3.sim_LP_S.cn
Analysing file DROME.xml_0_41_1.sim_LP_S.cn
Analysing file DROME.xml_0_41_2.sim_LP_S.cn
Analysing file DROME.xml_0_41_3.sim_LP_S.cn
Analysing file DROME.xml_0_83_1.sim_LP_S.cn
Analysing file DROME.xml_0_83_2.sim_LP_S.cn
Analysing file DROME.xml_0_83_3.sim_LP_S.cn
Analysing file ECO5782.xml_0_100_1.sim_LP_S.cn
Analysing file ECO5782.xml_0_100_2.sim_LP_S.cn
Analysing file ECO5782.xml_0_100_3.sim_LP_S.cn
Analysing file ECO5782.xml_0_151_1.sim_LP_S.cn
Analysing file ECO5782.xml_0_151_2.sim_LP_S.cn
Analysing file ECO5782.xml_0_50_1.sim_LP_S.cn
Analysing file ECO5782.xml_0_50_2.sim_LP_S.cn
Analysing file ECO5782.xml_0_50_3.sim_LP_S.cn
Analysing file ECOLI.xml_0_142_1.sim_LP_S.cn
Analysing file ECOLI.xml_0_142_2.sim_LP_S.cn
Analysing file ECOLI.xml_0_142_3.sim_LP_S.cn
Analysing file ECOLI.xml_0_47_1.sim_LP_S.cn
Analysing file ECOLI.xml_0_47_2.sim_LP_S.cn
Analysing file ECOLI.xml_0_47_3.sim_LP_S.cn
Analysing file ECOLI.xml_0_94_1.sim_LP_S.cn
Analysing file ECOLI.xml_0_94_2.sim_LP_S.cn
Analysing file ECOLI.xml_0_94_3.sim_LP_S.cn
Analysing file ECOLI149.xml_0_142_1.sim_LP_S.cn
Analysing file ECOLI149.xml_0_142_2.sim_LP_S.cn
Analysing file ECOLI149.xml_0_142_3.sim_LP_S.cn
Analysing file ECOLI149.xml_0_47_1.sim_LP_S.cn
Analysing file ECOLI149.xml_0_47_2.sim_LP_S.cn
Analysing file ECOLI149.xml_0_47_3.sim_LP_S.cn
Analysing file ECOLI149.xml_0_95_1.sim_LP_S.cn
Analysing file ECOLI149.xml_0_95_2.sim_LP_S.cn
Analysing file ECOLI149.xml_0_95_3.sim_LP_S.cn
Analysing file ECOSE461.xml_0_104_1.sim_LP_S.cn
Analysing file ECOSE461.xml_0_104_2.sim_LP_S.cn
Analysing file ECOSE461.xml_0_104_3.sim_LP_S.cn
Analysing file ECOSE461.xml_0_156_1.sim_LP_S.cn
Analysing file ECOSE461.xml_0_156_2.sim_LP_S.cn
Analysing file ECOSE461.xml_0_156_3.sim_LP_S.cn
Analysing file ECOSE461.xml_0_52_1.sim_LP_S.cn
Analysing file ECOSE461.xml_0_52_2.sim_LP_S.cn
Analysing file ECOSE461.xml_0_52_3.sim_LP_S.cn
Analysing file ERWCT87.xml_0_148_1.sim_LP_S.cn
Analysing file ERWCT87.xml_0_148_2.sim_LP_S.cn
Analysing file ERWCT87.xml_0_148_3.sim_LP_S.cn
Analysing file ERWCT87.xml_0_49_1.sim_LP_S.cn
Analysing file ERWCT87.xml_0_49_2.sim_LP_S.cn
Analysing file ERWCT87.xml_0_49_3.sim_LP_S.cn
Analysing file ERWCT87.xml_0_99_1.sim_LP_S.cn
Analysing file ERWCT87.xml_0_99_2.sim_LP_S.cn
Analysing file ERWCT87.xml_0_99_3.sim_LP_S.cn
Analysing file FRAAL54.xml_0_146_1.sim_LP_S.cn
Analysing file FRAAL54.xml_0_146_2.sim_LP_S.cn
Analysing file FRAAL54.xml_0_146_3.sim_LP_S.cn
Analysing file FRAAL54.xml_0_48_1.sim_LP_S.cn
Analysing file FRAAL54.xml_0_48_2.sim_LP_S.cn
Analysing file FRAAL54.xml_0_48_3.sim_LP_S.cn
Analysing file FRAAL54.xml_0_97_1.sim_LP_S.cn
Analysing file FRAAL54.xml_0_97_2.sim_LP_S.cn
Analysing file FRAAL54.xml_0_97_3.sim_LP_S.cn
Analysing file HAMD5584.xml_0_22_1.sim_LP_S.cn
Analysing file HAMD5584.xml_0_22_2.sim_LP_S.cn
Analysing file HAMD5584.xml_0_22_3.sim_LP_S.cn
Analysing file HAMD5584.xml_0_45_1.sim_LP_S.cn
Analysing file HAMD5584.xml_0_45_2.sim_LP_S.cn
Analysing file HAMD5584.xml_0_45_3.sim_LP_S.cn
Analysing file HAMD5584.xml_0_67_1.sim_LP_S.cn
Analysing file HAMD5584.xml_0_67_2.sim_LP_S.cn
Analysing file HAMD5584.xml_0_67_3.sim_LP_S.cn
Analysing file HELPY117.xml_0_21_1.sim_LP_S.cn
Analysing file HELPY117.xml_0_21_2.sim_LP_S.cn
Analysing file HELPY117.xml_0_21_3.sim_LP_S.cn
Analysing file HELPY117.xml_0_43_1.sim_LP_S.cn
Analysing file HELPY117.xml_0_43_2.sim_LP_S.cn
Analysing file HELPY117.xml_0_43_3.sim_LP_S.cn
Analysing file HELPY117.xml_0_65_1.sim_LP_S.cn
Analysing file HELPY117.xml_0_65_2.sim_LP_S.cn
Analysing file HELPY117.xml_0_65_3.sim_LP_S.cn
Analysing file HELSH381.xml_0_24_1.sim_LP_S.cn
Analysing file HELSH381.xml_0_24_2.sim_LP_S.cn
Analysing file HELSH381.xml_0_24_3.sim_LP_S.cn
Analysing file HELSH381.xml_0_48_1.sim_LP_S.cn
Analysing file HELSH381.xml_0_48_2.sim_LP_S.cn
Analysing file HELSH381.xml_0_48_3.sim_LP_S.cn
Analysing file HELSH381.xml_0_73_1.sim_LP_S.cn
Analysing file HELSH381.xml_0_73_2.sim_LP_S.cn
Analysing file HELSH381.xml_0_73_3.sim_LP_S.cn
Analysing file HODCD587.xml_0_12_1.sim_LP_S.cn
Analysing file HODCD587.xml_0_12_2.sim_LP_S.cn
Analysing file HODCD587.xml_0_12_3.sim_LP_S.cn
Analysing file HODCD587.xml_0_4_1.sim_LP_S.cn
Analysing file HODCD587.xml_0_4_2.sim_LP_S.cn
Analysing file HODCD587.xml_0_4_3.sim_LP_S.cn
Analysing file HODCD587.xml_0_8_1.sim_LP_S.cn
Analysing file HODCD587.xml_0_8_2.sim_LP_S.cn
Analysing file HODCD587.xml_0_8_3.sim_LP_S.cn
Analysing file HUMAN.xml_0_102_1.sim_LP_S.cn
Analysing file HUMAN.xml_0_102_2.sim_LP_S.cn
Analysing file HUMAN.xml_0_102_3.sim_LP_S.cn
Analysing file HUMAN.xml_0_153_1.sim_LP_S.cn
Analysing file HUMAN.xml_0_153_2.sim_LP_S.cn
Analysing file HUMAN.xml_0_153_3.sim_LP_S.cn
Analysing file HUMAN.xml_0_51_1.sim_LP_S.cn
Analysing file HUMAN.xml_0_51_2.sim_LP_S.cn
Analysing file HUMAN.xml_0_51_3.sim_LP_S.cn
Analysing file LACC3571.xml_0_32_1.sim_LP_S.cn
Analysing file LACC3571.xml_0_32_2.sim_LP_S.cn
Analysing file LACC3571.xml_0_32_3.sim_LP_S.cn
Analysing file LACC3571.xml_0_64_1.sim_LP_S.cn
Analysing file LACC3571.xml_0_64_2.sim_LP_S.cn
Analysing file LACC3571.xml_0_64_3.sim_LP_S.cn
Analysing file LACC3571.xml_0_96_1.sim_LP_S.cn
Analysing file LACC3571.xml_0_96_2.sim_LP_S.cn
Analysing file LACC3571.xml_0_96_3.sim_LP_S.cn
Analysing file LAWIP290.xml_0_23_1.sim_LP_S.cn
Analysing file LAWIP290.xml_0_23_2.sim_LP_S.cn
Analysing file LAWIP290.xml_0_23_3.sim_LP_S.cn
Analysing file LAWIP290.xml_0_46_1.sim_LP_S.cn
Analysing file LAWIP290.xml_0_46_2.sim_LP_S.cn
Analysing file LAWIP290.xml_0_46_3.sim_LP_S.cn
Analysing file LAWIP290.xml_0_69_1.sim_LP_S.cn
Analysing file LAWIP290.xml_0_69_2.sim_LP_S.cn
Analysing file LAWIP290.xml_0_69_3.sim_LP_S.cn
Analysing file LEISH.xml_0_24_1.sim_LP_S.cn
Analysing file LEISH.xml_0_24_2.sim_LP_S.cn
Analysing file LEISH.xml_0_24_3.sim_LP_S.cn
Analysing file LEISH.xml_0_49_1.sim_LP_S.cn
Analysing file LEISH.xml_0_49_2.sim_LP_S.cn
Analysing file LEISH.xml_0_49_3.sim_LP_S.cn
Analysing file LEISH.xml_0_74_1.sim_LP_S.cn
Analysing file LEISH.xml_0_74_2.sim_LP_S.cn
Analysing file LEISH.xml_0_74_3.sim_LP_S.cn
Analysing file LISIN395.xml_0_22_1.sim_LP_S.cn
Analysing file LISIN395.xml_0_22_2.sim_LP_S.cn
Analysing file LISIN395.xml_0_22_3.sim_LP_S.cn
Analysing file LISIN395.xml_0_45_1.sim_LP_S.cn
Analysing file LISIN395.xml_0_45_2.sim_LP_S.cn
Analysing file LISIN395.xml_0_45_3.sim_LP_S.cn
Analysing file LISIN395.xml_0_68_1.sim_LP_S.cn
Analysing file LISIN395.xml_0_68_2.sim_LP_S.cn
Analysing file LISIN395.xml_0_68_3.sim_LP_S.cn
Analysing file META.xml_0_183_1.sim_LP_S.cn
Analysing file META.xml_0_183_2.sim_LP_S.cn
Analysing file META.xml_0_183_3.sim_LP_S.cn
Analysing file META.xml_0_367_1.sim_LP_S.cn
Analysing file METDI147.xml_0_148_1.sim_LP_S.cn
Analysing file METDI147.xml_0_148_2.sim_LP_S.cn
Analysing file METDI147.xml_0_148_3.sim_LP_S.cn
Analysing file METDI147.xml_0_49_1.sim_LP_S.cn
Analysing file METDI147.xml_0_49_2.sim_LP_S.cn
Analysing file METDI147.xml_0_49_3.sim_LP_S.cn
Analysing file METDI147.xml_0_98_1.sim_LP_S.cn
Analysing file METDI147.xml_0_98_2.sim_LP_S.cn
Analysing file METDI147.xml_0_98_3.sim_LP_S.cn
Analysing file METEX155.xml_0_147_1.sim_LP_S.cn
Analysing file METEX155.xml_0_147_2.sim_LP_S.cn
Analysing file METEX155.xml_0_147_3.sim_LP_S.cn
Analysing file METEX155.xml_0_49_1.sim_LP_S.cn
Analysing file METEX155.xml_0_49_2.sim_LP_S.cn
Analysing file METEX155.xml_0_49_3.sim_LP_S.cn
Analysing file METEX155.xml_0_98_1.sim_LP_S.cn
Analysing file METEX155.xml_0_98_2.sim_LP_S.cn
Analysing file METEX155.xml_0_98_3.sim_LP_S.cn
Analysing file METEX218.xml_0_144_1.sim_LP_S.cn
Analysing file METEX218.xml_0_144_2.sim_LP_S.cn
Analysing file METEX218.xml_0_144_3.sim_LP_S.cn
Analysing file METEX218.xml_0_48_1.sim_LP_S.cn
Analysing file METEX218.xml_0_48_2.sim_LP_S.cn
Analysing file METEX218.xml_0_48_3.sim_LP_S.cn
Analysing file METEX218.xml_0_96_1.sim_LP_S.cn
Analysing file METEX218.xml_0_96_2.sim_LP_S.cn
Analysing file METEX218.xml_0_96_3.sim_LP_S.cn
Analysing file METPO312.xml_0_144_1.sim_LP_S.cn
Analysing file METPO312.xml_0_144_2.sim_LP_S.cn
Analysing file METPO312.xml_0_144_3.sim_LP_S.cn
Analysing file METPO312.xml_0_48_1.sim_LP_S.cn
Analysing file METPO312.xml_0_48_2.sim_LP_S.cn
Analysing file METPO312.xml_0_48_3.sim_LP_S.cn
Analysing file METPO312.xml_0_96_1.sim_LP_S.cn
Analysing file METPO312.xml_0_96_2.sim_LP_S.cn
Analysing file METPO312.xml_0_96_3.sim_LP_S.cn
Analysing file METRJ311.xml_0_102_1.sim_LP_S.cn
Analysing file METRJ311.xml_0_102_2.sim_LP_S.cn
Analysing file METRJ311.xml_0_102_3.sim_LP_S.cn
Analysing file METRJ311.xml_0_154_1.sim_LP_S.cn
Analysing file METRJ311.xml_0_154_2.sim_LP_S.cn
Analysing file METRJ311.xml_0_51_1.sim_LP_S.cn
Analysing file METRJ311.xml_0_51_2.sim_LP_S.cn
Analysing file METRJ311.xml_0_51_3.sim_LP_S.cn
Analysing file METSP297.xml_0_108_1.sim_LP_S.cn
Analysing file METSP297.xml_0_108_2.sim_LP_S.cn
Analysing file METSP297.xml_0_108_3.sim_LP_S.cn
Analysing file METSP297.xml_0_162_1.sim_LP_S.cn
Analysing file METSP297.xml_0_162_2.sim_LP_S.cn
Analysing file METSP297.xml_0_162_3.sim_LP_S.cn
Analysing file METSP297.xml_0_54_1.sim_LP_S.cn
Analysing file METSP297.xml_0_54_2.sim_LP_S.cn
Analysing file METSP297.xml_0_54_3.sim_LP_S.cn
Analysing file MOUSE.xml_0_118_1.sim_LP_S.cn
Analysing file MOUSE.xml_0_118_2.sim_LP_S.cn
Analysing file MOUSE.xml_0_118_3.sim_LP_S.cn
Analysing file MOUSE.xml_0_178_1.sim_LP_S.cn
Analysing file MOUSE.xml_0_178_2.sim_LP_S.cn
Analysing file MOUSE.xml_0_178_3.sim_LP_S.cn
Analysing file MOUSE.xml_0_59_1.sim_LP_S.cn
Analysing file MOUSE.xml_0_59_2.sim_LP_S.cn
Analysing file MOUSE.xml_0_59_3.sim_LP_S.cn
Analysing file MYCGE69.xml_0_14_1.sim_LP_S.cn
Analysing file MYCGE69.xml_0_14_2.sim_LP_S.cn
Analysing file MYCGE69.xml_0_14_3.sim_LP_S.cn
Analysing file MYCGE69.xml_0_22_1.sim_LP_S.cn
Analysing file MYCGE69.xml_0_22_2.sim_LP_S.cn
Analysing file MYCGE69.xml_0_22_3.sim_LP_S.cn
Analysing file MYCGE69.xml_0_7_1.sim_LP_S.cn
Analysing file MYCGE69.xml_0_7_2.sim_LP_S.cn
Analysing file MYCGE69.xml_0_7_3.sim_LP_S.cn
Analysing file MYCH2287.xml_0_18_1.sim_LP_S.cn
Analysing file MYCH2287.xml_0_18_2.sim_LP_S.cn
Analysing file MYCH2287.xml_0_18_3.sim_LP_S.cn
Analysing file MYCH2287.xml_0_28_1.sim_LP_S.cn
Analysing file MYCH2287.xml_0_28_2.sim_LP_S.cn
Analysing file MYCH2287.xml_0_28_3.sim_LP_S.cn
Analysing file MYCH2287.xml_0_9_1.sim_LP_S.cn
Analysing file MYCH2287.xml_0_9_2.sim_LP_S.cn
Analysing file MYCH2287.xml_0_9_3.sim_LP_S.cn
Analysing file MYCH7288.xml_0_18_1.sim_LP_S.cn
Analysing file MYCH7288.xml_0_18_2.sim_LP_S.cn
Analysing file MYCH7288.xml_0_18_3.sim_LP_S.cn
Analysing file MYCH7288.xml_0_27_1.sim_LP_S.cn
Analysing file MYCH7288.xml_0_27_2.sim_LP_S.cn
Analysing file MYCH7288.xml_0_27_3.sim_LP_S.cn
Analysing file MYCH7288.xml_0_9_1.sim_LP_S.cn
Analysing file MYCH7288.xml_0_9_2.sim_LP_S.cn
Analysing file MYCH7288.xml_0_9_3.sim_LP_S.cn
Analysing file MYCHJ289.xml_0_18_1.sim_LP_S.cn
Analysing file MYCHJ289.xml_0_18_2.sim_LP_S.cn
Analysing file MYCHJ289.xml_0_18_3.sim_LP_S.cn
Analysing file MYCHJ289.xml_0_27_1.sim_LP_S.cn
Analysing file MYCHJ289.xml_0_27_2.sim_LP_S.cn
Analysing file MYCHJ289.xml_0_27_3.sim_LP_S.cn
Analysing file MYCHJ289.xml_0_9_1.sim_LP_S.cn
Analysing file MYCHJ289.xml_0_9_2.sim_LP_S.cn
Analysing file MYCHJ289.xml_0_9_3.sim_LP_S.cn
Analysing file MYCPA174.xml_0_136_1.sim_LP_S.cn
Analysing file MYCPA174.xml_0_136_2.sim_LP_S.cn
Analysing file MYCPA174.xml_0_136_3.sim_LP_S.cn
Analysing file MYCPA174.xml_0_204_1.sim_LP_S.cn
Analysing file MYCPA174.xml_0_68_1.sim_LP_S.cn
Analysing file MYCPA174.xml_0_68_2.sim_LP_S.cn
Analysing file MYCPA174.xml_0_68_3.sim_LP_S.cn
Analysing file MYCTU4.xml_0_117_1.sim_LP_S.cn
Analysing file MYCTU4.xml_0_117_2.sim_LP_S.cn
Analysing file MYCTU4.xml_0_117_3.sim_LP_S.cn
Analysing file MYCTU4.xml_0_39_1.sim_LP_S.cn
Analysing file MYCTU4.xml_0_39_2.sim_LP_S.cn
Analysing file MYCTU4.xml_0_39_3.sim_LP_S.cn
Analysing file MYCTU4.xml_0_78_1.sim_LP_S.cn
Analysing file MYCTU4.xml_0_78_2.sim_LP_S.cn
Analysing file MYCTU4.xml_0_78_3.sim_LP_S.cn
Analysing file NEIG1423.xml_0_26_1.sim_LP_S.cn
Analysing file NEIG1423.xml_0_26_2.sim_LP_S.cn
Analysing file NEIG1423.xml_0_26_3.sim_LP_S.cn
Analysing file NEIG1423.xml_0_53_1.sim_LP_S.cn
Analysing file NEIG1423.xml_0_53_2.sim_LP_S.cn
Analysing file NEIG1423.xml_0_53_3.sim_LP_S.cn
Analysing file NEIG1423.xml_0_80_1.sim_LP_S.cn
Analysing file NEIG1423.xml_0_80_2.sim_LP_S.cn
Analysing file NEIG1423.xml_0_80_3.sim_LP_S.cn
Analysing file ONYPE335.xml_0_10_1.sim_LP_S.cn
Analysing file ONYPE335.xml_0_10_2.sim_LP_S.cn
Analysing file ONYPE335.xml_0_10_3.sim_LP_S.cn
Analysing file ONYPE335.xml_0_21_1.sim_LP_S.cn
Analysing file ONYPE335.xml_0_21_2.sim_LP_S.cn
Analysing file ONYPE335.xml_0_21_3.sim_LP_S.cn
Analysing file ONYPE335.xml_0_31_1.sim_LP_S.cn
Analysing file ONYPE335.xml_0_31_2.sim_LP_S.cn
Analysing file ONYPE335.xml_0_31_3.sim_LP_S.cn
Analysing file PBERGHEI.xml_0_12_1.sim_LP_S.cn
Analysing file PBERGHEI.xml_0_12_2.sim_LP_S.cn
Analysing file PBERGHEI.xml_0_12_3.sim_LP_S.cn
Analysing file PBERGHEI.xml_0_24_1.sim_LP_S.cn
Analysing file PBERGHEI.xml_0_24_2.sim_LP_S.cn
Analysing file PBERGHEI.xml_0_24_3.sim_LP_S.cn
Analysing file PBERGHEI.xml_0_36_1.sim_LP_S.cn
Analysing file PBERGHEI.xml_0_36_2.sim_LP_S.cn
Analysing file PBERGHEI.xml_0_36_3.sim_LP_S.cn
Analysing file PCHABAUDI.xml_0_11_1.sim_LP_S.cn
Analysing file PCHABAUDI.xml_0_11_2.sim_LP_S.cn
Analysing file PCHABAUDI.xml_0_11_3.sim_LP_S.cn
Analysing file PCHABAUDI.xml_0_22_1.sim_LP_S.cn
Analysing file PCHABAUDI.xml_0_22_2.sim_LP_S.cn
Analysing file PCHABAUDI.xml_0_22_3.sim_LP_S.cn
Analysing file PCHABAUDI.xml_0_34_1.sim_LP_S.cn
Analysing file PCHABAUDI.xml_0_34_2.sim_LP_S.cn
Analysing file PCHABAUDI.xml_0_34_3.sim_LP_S.cn
Analysing file PHOLU8.xml_0_108_1.sim_LP_S.cn
Analysing file PHOLU8.xml_0_108_2.sim_LP_S.cn
Analysing file PHOLU8.xml_0_108_3.sim_LP_S.cn
Analysing file PHOLU8.xml_0_36_1.sim_LP_S.cn
Analysing file PHOLU8.xml_0_36_2.sim_LP_S.cn
Analysing file PHOLU8.xml_0_36_3.sim_LP_S.cn
Analysing file PHOLU8.xml_0_72_1.sim_LP_S.cn
Analysing file PHOLU8.xml_0_72_2.sim_LP_S.cn
Analysing file PHOLU8.xml_0_72_3.sim_LP_S.cn
Analysing file PLANT.xml_0_177_1.sim_LP_S.cn
Analysing file PLANT.xml_0_177_2.sim_LP_S.cn
Analysing file PLANT.xml_0_177_3.sim_LP_S.cn
Analysing file PLANT.xml_0_266_1.sim_LP_S.cn
Analysing file PLANT.xml_0_266_2.sim_LP_S.cn
Analysing file PLANT.xml_0_88_1.sim_LP_S.cn
Analysing file PLANT.xml_0_88_2.sim_LP_S.cn
Analysing file PLANT.xml_0_88_3.sim_LP_S.cn
Analysing file PLASMO.xml_0_19_1.sim_LP_S.cn
Analysing file PLASMO.xml_0_19_2.sim_LP_S.cn
Analysing file PLASMO.xml_0_19_3.sim_LP_S.cn
Analysing file PLASMO.xml_0_38_1.sim_LP_S.cn
Analysing file PLASMO.xml_0_38_2.sim_LP_S.cn
Analysing file PLASMO.xml_0_38_3.sim_LP_S.cn
Analysing file PLASMO.xml_0_58_1.sim_LP_S.cn
Analysing file PLASMO.xml_0_58_2.sim_LP_S.cn
Analysing file PLASMO.xml_0_58_3.sim_LP_S.cn
Analysing file PSEAB608.xml_0_107_1.sim_LP_S.cn
Analysing file PSEAB608.xml_0_107_2.sim_LP_S.cn
Analysing file PSEAB608.xml_0_107_3.sim_LP_S.cn
Analysing file PSEAB608.xml_0_161_1.sim_LP_S.cn
Analysing file PSEAB608.xml_0_161_2.sim_LP_S.cn
Analysing file PSEAB608.xml_0_161_3.sim_LP_S.cn
Analysing file PSEAB608.xml_0_53_1.sim_LP_S.cn
Analysing file PSEAB608.xml_0_53_2.sim_LP_S.cn
Analysing file PSEAB608.xml_0_53_3.sim_LP_S.cn
Analysing file PSEEN58.xml_0_139_1.sim_LP_S.cn
Analysing file PSEEN58.xml_0_139_2.sim_LP_S.cn
Analysing file PSEEN58.xml_0_46_1.sim_LP_S.cn
Analysing file PSEEN58.xml_0_46_2.sim_LP_S.cn
Analysing file PSEEN58.xml_0_46_3.sim_LP_S.cn
Analysing file PSEEN58.xml_0_92_1.sim_LP_S.cn
Analysing file PSEEN58.xml_0_92_2.sim_LP_S.cn
Analysing file PSEEN58.xml_0_92_3.sim_LP_S.cn
Analysing file PSEFS611.xml_0_110_1.sim_LP_S.cn
Analysing file PSEFS611.xml_0_110_2.sim_LP_S.cn
Analysing file PSEFS611.xml_0_110_3.sim_LP_S.cn
Analysing file PSEFS611.xml_0_166_1.sim_LP_S.cn
Analysing file PSEFS611.xml_0_166_2.sim_LP_S.cn
Analysing file PSEFS611.xml_0_166_3.sim_LP_S.cn
Analysing file PSEFS611.xml_0_55_1.sim_LP_S.cn
Analysing file PSEFS611.xml_0_55_2.sim_LP_S.cn
Analysing file PSEFS611.xml_0_55_3.sim_LP_S.cn
Analysing file PSEHA27.xml_0_114_1.sim_LP_S.cn
Analysing file PSEHA27.xml_0_114_2.sim_LP_S.cn
Analysing file PSEHA27.xml_0_114_3.sim_LP_S.cn
Analysing file PSEHA27.xml_0_38_1.sim_LP_S.cn
Analysing file PSEHA27.xml_0_38_2.sim_LP_S.cn
Analysing file PSEHA27.xml_0_38_3.sim_LP_S.cn
Analysing file PSEHA27.xml_0_76_1.sim_LP_S.cn
Analysing file PSEHA27.xml_0_76_2.sim_LP_S.cn
Analysing file PSEHA27.xml_0_76_3.sim_LP_S.cn
Analysing file PSEPA26.xml_0_100_1.sim_LP_S.cn
Analysing file PSEPA26.xml_0_100_2.sim_LP_S.cn
Analysing file PSEPA26.xml_0_100_3.sim_LP_S.cn
Analysing file PSEPA26.xml_0_150_1.sim_LP_S.cn
Analysing file PSEPA26.xml_0_150_2.sim_LP_S.cn
Analysing file PSEPA26.xml_0_150_3.sim_LP_S.cn
Analysing file PSEPA26.xml_0_50_1.sim_LP_S.cn
Analysing file PSEPA26.xml_0_50_2.sim_LP_S.cn
Analysing file PSEPA26.xml_0_50_3.sim_LP_S.cn
Analysing file PVIVAX.xml_0_14_1.sim_LP_S.cn
Analysing file PVIVAX.xml_0_14_2.sim_LP_S.cn
Analysing file PVIVAX.xml_0_14_3.sim_LP_S.cn
Analysing file PVIVAX.xml_0_28_1.sim_LP_S.cn
Analysing file PVIVAX.xml_0_28_2.sim_LP_S.cn
Analysing file PVIVAX.xml_0_28_3.sim_LP_S.cn
Analysing file PVIVAX.xml_0_42_1.sim_LP_S.cn
Analysing file PVIVAX.xml_0_42_2.sim_LP_S.cn
Analysing file PVIVAX.xml_0_42_3.sim_LP_S.cn
Analysing file PYOELII.xml_0_14_1.sim_LP_S.cn
Analysing file PYOELII.xml_0_14_2.sim_LP_S.cn
Analysing file PYOELII.xml_0_14_3.sim_LP_S.cn
Analysing file PYOELII.xml_0_28_1.sim_LP_S.cn
Analysing file PYOELII.xml_0_28_2.sim_LP_S.cn
Analysing file PYOELII.xml_0_28_3.sim_LP_S.cn
Analysing file PYOELII.xml_0_42_1.sim_LP_S.cn
Analysing file PYOELII.xml_0_42_2.sim_LP_S.cn
Analysing file PYOELII.xml_0_42_3.sim_LP_S.cn
Analysing file RALH1181.xml_0_110_1.sim_LP_S.cn
Analysing file RALH1181.xml_0_110_2.sim_LP_S.cn
Analysing file RALH1181.xml_0_110_3.sim_LP_S.cn
Analysing file RALH1181.xml_0_55_1.sim_LP_S.cn
Analysing file RALH1181.xml_0_55_2.sim_LP_S.cn
Analysing file RALH1181.xml_0_55_3.sim_LP_S.cn
Analysing file RALTA144.xml_0_108_1.sim_LP_S.cn
Analysing file RALTA144.xml_0_108_2.sim_LP_S.cn
Analysing file RALTA144.xml_0_108_3.sim_LP_S.cn
Analysing file RALTA144.xml_0_162_1.sim_LP_S.cn
Analysing file RALTA144.xml_0_162_2.sim_LP_S.cn
Analysing file RALTA144.xml_0_162_3.sim_LP_S.cn
Analysing file RALTA144.xml_0_54_1.sim_LP_S.cn
Analysing file RALTA144.xml_0_54_2.sim_LP_S.cn
Analysing file RALTA144.xml_0_54_3.sim_LP_S.cn
Analysing file RBC.xml_0_21_1.sim_LP_S.cn
Analysing file RBC.xml_0_21_2.sim_LP_S.cn
Analysing file RBC.xml_0_21_3.sim_LP_S.cn
Analysing file RBC.xml_0_43_1.sim_LP_S.cn
Analysing file RBC.xml_0_43_2.sim_LP_S.cn
Analysing file RBC.xml_0_43_3.sim_LP_S.cn
Analysing file RBC.xml_0_65_1.sim_LP_S.cn
Analysing file RBC.xml_0_65_2.sim_LP_S.cn
Analysing file RBC.xml_0_65_3.sim_LP_S.cn
Analysing file RHICF157.xml_0_109_1.sim_LP_S.cn
Analysing file RHICF157.xml_0_109_2.sim_LP_S.cn
Analysing file RHICF157.xml_0_109_3.sim_LP_S.cn
Analysing file RHICF157.xml_0_164_1.sim_LP_S.cn
Analysing file RHICF157.xml_0_164_2.sim_LP_S.cn
Analysing file RHICF157.xml_0_164_3.sim_LP_S.cn
Analysing file RHICF157.xml_0_54_1.sim_LP_S.cn
Analysing file RHICF157.xml_0_54_2.sim_LP_S.cn
Analysing file RHICF157.xml_0_54_3.sim_LP_S.cn
Analysing file RHILE109.xml_0_116_1.sim_LP_S.cn
Analysing file RHILE109.xml_0_116_2.sim_LP_S.cn
Analysing file RHILE109.xml_0_116_3.sim_LP_S.cn
Analysing file RHILE109.xml_0_175_1.sim_LP_S.cn
Analysing file RHILE109.xml_0_175_2.sim_LP_S.cn
Analysing file RHILE109.xml_0_175_3.sim_LP_S.cn
Analysing file RHILE109.xml_0_58_1.sim_LP_S.cn
Analysing file RHILE109.xml_0_58_2.sim_LP_S.cn
Analysing file RHILE109.xml_0_58_3.sim_LP_S.cn
Analysing file RHILO101.xml_0_114_1.sim_LP_S.cn
Analysing file RHILO101.xml_0_114_2.sim_LP_S.cn
Analysing file RHILO101.xml_0_114_3.sim_LP_S.cn
Analysing file RHILO101.xml_0_171_1.sim_LP_S.cn
Analysing file RHILO101.xml_0_171_2.sim_LP_S.cn
Analysing file RHILO101.xml_0_171_3.sim_LP_S.cn
Analysing file RHILO101.xml_0_57_1.sim_LP_S.cn
Analysing file RHILO101.xml_0_57_2.sim_LP_S.cn
Analysing file RHILO101.xml_0_57_3.sim_LP_S.cn
Analysing file RHIME102.xml_0_100_1.sim_LP_S.cn
Analysing file RHIME102.xml_0_100_2.sim_LP_S.cn
Analysing file RHIME102.xml_0_100_3.sim_LP_S.cn
Analysing file RHIME102.xml_0_151_1.sim_LP_S.cn
Analysing file RHIME102.xml_0_151_2.sim_LP_S.cn
Analysing file RHIME102.xml_0_151_3.sim_LP_S.cn
Analysing file RHIME102.xml_0_50_1.sim_LP_S.cn
Analysing file RHIME102.xml_0_50_2.sim_LP_S.cn
Analysing file RHIME102.xml_0_50_3.sim_LP_S.cn
Analysing file RHIME324.xml_0_146_1.sim_LP_S.cn
Analysing file RHIME324.xml_0_146_2.sim_LP_S.cn
Analysing file RHIME324.xml_0_146_3.sim_LP_S.cn
Analysing file RHIME324.xml_0_48_1.sim_LP_S.cn
Analysing file RHIME324.xml_0_48_2.sim_LP_S.cn
Analysing file RHIME324.xml_0_48_3.sim_LP_S.cn
Analysing file RHIME324.xml_0_97_1.sim_LP_S.cn
Analysing file RHIME324.xml_0_97_2.sim_LP_S.cn
Analysing file RHIME324.xml_0_97_3.sim_LP_S.cn
Analysing file RHORT339.xml_0_16_1.sim_LP_S.cn
Analysing file RHORT339.xml_0_16_2.sim_LP_S.cn
Analysing file RHORT339.xml_0_16_3.sim_LP_S.cn
Analysing file RHORT339.xml_0_32_1.sim_LP_S.cn
Analysing file RHORT339.xml_0_32_2.sim_LP_S.cn
Analysing file RHORT339.xml_0_32_3.sim_LP_S.cn
Analysing file RHORT339.xml_0_48_1.sim_LP_S.cn
Analysing file RHORT339.xml_0_48_2.sim_LP_S.cn
Analysing file RHORT339.xml_0_48_3.sim_LP_S.cn
Analysing file RICAH340.xml_0_17_1.sim_LP_S.cn
Analysing file RICAH340.xml_0_17_2.sim_LP_S.cn
Analysing file RICAH340.xml_0_17_3.sim_LP_S.cn
Analysing file RICAH340.xml_0_34_1.sim_LP_S.cn
Analysing file RICAH340.xml_0_34_2.sim_LP_S.cn
Analysing file RICAH340.xml_0_34_3.sim_LP_S.cn
Analysing file RICAH340.xml_0_51_1.sim_LP_S.cn
Analysing file RICAH340.xml_0_51_2.sim_LP_S.cn
Analysing file RICAH340.xml_0_51_3.sim_LP_S.cn
Analysing file RICFE336.xml_0_14_1.sim_LP_S.cn
Analysing file RICFE336.xml_0_14_2.sim_LP_S.cn
Analysing file RICFE336.xml_0_14_3.sim_LP_S.cn
Analysing file RICFE336.xml_0_29_1.sim_LP_S.cn
Analysing file RICFE336.xml_0_29_2.sim_LP_S.cn
Analysing file RICFE336.xml_0_29_3.sim_LP_S.cn
Analysing file RICFE336.xml_0_44_1.sim_LP_S.cn
Analysing file RICFE336.xml_0_44_2.sim_LP_S.cn
Analysing file RICFE336.xml_0_44_3.sim_LP_S.cn
Analysing file RICIO337.xml_0_15_1.sim_LP_S.cn
Analysing file RICIO337.xml_0_15_2.sim_LP_S.cn
Analysing file RICIO337.xml_0_15_3.sim_LP_S.cn
Analysing file RICIO337.xml_0_30_1.sim_LP_S.cn
Analysing file RICIO337.xml_0_30_2.sim_LP_S.cn
Analysing file RICIO337.xml_0_30_3.sim_LP_S.cn
Analysing file RICIO337.xml_0_46_1.sim_LP_S.cn
Analysing file RICIO337.xml_0_46_2.sim_LP_S.cn
Analysing file RICIO337.xml_0_46_3.sim_LP_S.cn
Analysing file RICPR22.xml_0_13_1.sim_LP_S.cn
Analysing file RICPR22.xml_0_13_2.sim_LP_S.cn
Analysing file RICPR22.xml_0_13_3.sim_LP_S.cn
Analysing file RICPR22.xml_0_26_1.sim_LP_S.cn
Analysing file RICPR22.xml_0_26_2.sim_LP_S.cn
Analysing file RICPR22.xml_0_26_3.sim_LP_S.cn
Analysing file RICPR22.xml_0_39_1.sim_LP_S.cn
Analysing file RICPR22.xml_0_39_2.sim_LP_S.cn
Analysing file RICPR22.xml_0_39_3.sim_LP_S.cn
Analysing file RICPR338.xml_0_14_1.sim_LP_S.cn
Analysing file RICPR338.xml_0_14_2.sim_LP_S.cn
Analysing file RICPR338.xml_0_14_3.sim_LP_S.cn
Analysing file RICPR338.xml_0_28_1.sim_LP_S.cn
Analysing file RICPR338.xml_0_28_2.sim_LP_S.cn
Analysing file RICPR338.xml_0_28_3.sim_LP_S.cn
Analysing file RICPR338.xml_0_43_1.sim_LP_S.cn
Analysing file RICPR338.xml_0_43_2.sim_LP_S.cn
Analysing file RICPR338.xml_0_43_3.sim_LP_S.cn
Analysing file RICTY191.xml_0_14_1.sim_LP_S.cn
Analysing file RICTY191.xml_0_14_2.sim_LP_S.cn
Analysing file RICTY191.xml_0_14_3.sim_LP_S.cn
Analysing file RICTY191.xml_0_29_1.sim_LP_S.cn
Analysing file RICTY191.xml_0_29_2.sim_LP_S.cn
Analysing file RICTY191.xml_0_29_3.sim_LP_S.cn
Analysing file RICTY191.xml_0_43_1.sim_LP_S.cn
Analysing file RICTY191.xml_0_43_2.sim_LP_S.cn
Analysing file RICTY191.xml_0_43_3.sim_LP_S.cn
Analysing file SALTI28.xml_0_102_1.sim_LP_S.cn
Analysing file SALTI28.xml_0_102_2.sim_LP_S.cn
Analysing file SALTI28.xml_0_102_3.sim_LP_S.cn
Analysing file SALTI28.xml_0_153_1.sim_LP_S.cn
Analysing file SALTI28.xml_0_153_2.sim_LP_S.cn
Analysing file SALTI28.xml_0_153_3.sim_LP_S.cn
Analysing file SALTI28.xml_0_51_1.sim_LP_S.cn
Analysing file SALTI28.xml_0_51_2.sim_LP_S.cn
Analysing file SALTI28.xml_0_51_3.sim_LP_S.cn
Analysing file SHIFL233.xml_0_149_1.sim_LP_S.cn
Analysing file SHIFL233.xml_0_149_2.sim_LP_S.cn
Analysing file SHIFL233.xml_0_149_3.sim_LP_S.cn
Analysing file SHIFL233.xml_0_49_1.sim_LP_S.cn
Analysing file SHIFL233.xml_0_49_2.sim_LP_S.cn
Analysing file SHIFL233.xml_0_49_3.sim_LP_S.cn
Analysing file SHIFL233.xml_0_99_1.sim_LP_S.cn
Analysing file SHIFL233.xml_0_99_2.sim_LP_S.cn
Analysing file SHIFL233.xml_0_99_3.sim_LP_S.cn
Analysing file SODGM283.xml_0_107_1.sim_LP_S.cn
Analysing file SODGM283.xml_0_107_2.sim_LP_S.cn
Analysing file SODGM283.xml_0_107_3.sim_LP_S.cn
Analysing file SODGM283.xml_0_35_1.sim_LP_S.cn
Analysing file SODGM283.xml_0_35_2.sim_LP_S.cn
Analysing file SODGM283.xml_0_35_3.sim_LP_S.cn
Analysing file SODGM283.xml_0_71_1.sim_LP_S.cn
Analysing file SODGM283.xml_0_71_2.sim_LP_S.cn
Analysing file SODGM283.xml_0_71_3.sim_LP_S.cn
Analysing file STRA5213.xml_0_30_1.sim_LP_S.cn
Analysing file STRA5213.xml_0_30_2.sim_LP_S.cn
Analysing file STRA5213.xml_0_30_3.sim_LP_S.cn
Analysing file STRA5213.xml_0_60_1.sim_LP_S.cn
Analysing file STRA5213.xml_0_60_2.sim_LP_S.cn
Analysing file STRA5213.xml_0_60_3.sim_LP_S.cn
Analysing file STRA5213.xml_0_90_1.sim_LP_S.cn
Analysing file STRA5213.xml_0_90_2.sim_LP_S.cn
Analysing file STRA5213.xml_0_90_3.sim_LP_S.cn
Analysing file STRTD228.xml_0_24_1.sim_LP_S.cn
Analysing file STRTD228.xml_0_24_2.sim_LP_S.cn
Analysing file STRTD228.xml_0_24_3.sim_LP_S.cn
Analysing file STRTD228.xml_0_48_1.sim_LP_S.cn
Analysing file STRTD228.xml_0_48_2.sim_LP_S.cn
Analysing file STRTD228.xml_0_48_3.sim_LP_S.cn
Analysing file STRTD228.xml_0_72_1.sim_LP_S.cn
Analysing file STRTD228.xml_0_72_2.sim_LP_S.cn
Analysing file STRTD228.xml_0_72_3.sim_LP_S.cn
Analysing file SULMS583.xml_0_14_1.sim_LP_S.cn
Analysing file SULMS583.xml_0_14_2.sim_LP_S.cn
Analysing file SULMS583.xml_0_14_3.sim_LP_S.cn
Analysing file SULMS583.xml_0_22_1.sim_LP_S.cn
Analysing file SULMS583.xml_0_22_2.sim_LP_S.cn
Analysing file SULMS583.xml_0_22_3.sim_LP_S.cn
Analysing file SULMS583.xml_0_7_1.sim_LP_S.cn
Analysing file SULMS583.xml_0_7_2.sim_LP_S.cn
Analysing file SULMS583.xml_0_7_3.sim_LP_S.cn
Analysing file THICR664.xml_0_31_1.sim_LP_S.cn
Analysing file THICR664.xml_0_31_2.sim_LP_S.cn
Analysing file THICR664.xml_0_31_3.sim_LP_S.cn
Analysing file THICR664.xml_0_62_1.sim_LP_S.cn
Analysing file THICR664.xml_0_62_2.sim_LP_S.cn
Analysing file THICR664.xml_0_62_3.sim_LP_S.cn
Analysing file THICR664.xml_0_93_1.sim_LP_S.cn
Analysing file THICR664.xml_0_93_2.sim_LP_S.cn
Analysing file THICR664.xml_0_93_3.sim_LP_S.cn
Analysing file VIBCH43.xml_0_124_1.sim_LP_S.cn
Analysing file VIBCH43.xml_0_124_2.sim_LP_S.cn
Analysing file VIBCH43.xml_0_124_3.sim_LP_S.cn
Analysing file VIBCH43.xml_0_41_1.sim_LP_S.cn
Analysing file VIBCH43.xml_0_41_2.sim_LP_S.cn
Analysing file VIBCH43.xml_0_41_3.sim_LP_S.cn
Analysing file VIBCH43.xml_0_83_1.sim_LP_S.cn
Analysing file VIBCH43.xml_0_83_2.sim_LP_S.cn
Analysing file VIBCH43.xml_0_83_3.sim_LP_S.cn
Analysing file WIGBR88.xml_0_17_1.sim_LP_S.cn
Analysing file WIGBR88.xml_0_17_2.sim_LP_S.cn
Analysing file WIGBR88.xml_0_17_3.sim_LP_S.cn
Analysing file WIGBR88.xml_0_34_1.sim_LP_S.cn
Analysing file WIGBR88.xml_0_34_2.sim_LP_S.cn
Analysing file WIGBR88.xml_0_34_3.sim_LP_S.cn
Analysing file WIGBR88.xml_0_52_1.sim_LP_S.cn
Analysing file WIGBR88.xml_0_52_2.sim_LP_S.cn
Analysing file WIGBR88.xml_0_52_3.sim_LP_S.cn
Analysing file WOLPM285.xml_0_16_1.sim_LP_S.cn
Analysing file WOLPM285.xml_0_16_2.sim_LP_S.cn
Analysing file WOLPM285.xml_0_16_3.sim_LP_S.cn
Analysing file WOLPM285.xml_0_33_1.sim_LP_S.cn
Analysing file WOLPM285.xml_0_33_2.sim_LP_S.cn
Analysing file WOLPM285.xml_0_33_3.sim_LP_S.cn
Analysing file WOLPM285.xml_0_49_1.sim_LP_S.cn
Analysing file WOLPM285.xml_0_49_2.sim_LP_S.cn
Analysing file WOLPM285.xml_0_49_3.sim_LP_S.cn
Analysing file WOLSU119.xml_0_27_1.sim_LP_S.cn
Analysing file WOLSU119.xml_0_27_2.sim_LP_S.cn
Analysing file WOLSU119.xml_0_27_3.sim_LP_S.cn
Analysing file WOLSU119.xml_0_54_1.sim_LP_S.cn
Analysing file WOLSU119.xml_0_54_2.sim_LP_S.cn
Analysing file WOLSU119.xml_0_54_3.sim_LP_S.cn
Analysing file WOLSU119.xml_0_81_1.sim_LP_S.cn
Analysing file WOLSU119.xml_0_81_2.sim_LP_S.cn
Analysing file WOLSU119.xml_0_81_3.sim_LP_S.cn
Analysing file WOLTR284.xml_0_15_1.sim_LP_S.cn
Analysing file WOLTR284.xml_0_15_2.sim_LP_S.cn
Analysing file WOLTR284.xml_0_15_3.sim_LP_S.cn
Analysing file WOLTR284.xml_0_30_1.sim_LP_S.cn
Analysing file WOLTR284.xml_0_30_2.sim_LP_S.cn
Analysing file WOLTR284.xml_0_30_3.sim_LP_S.cn
Analysing file WOLTR284.xml_0_45_1.sim_LP_S.cn
Analysing file WOLTR284.xml_0_45_2.sim_LP_S.cn
Analysing file WOLTR284.xml_0_45_3.sim_LP_S.cn
Analysing file XYLFA44.xml_0_30_1.sim_LP_S.cn
Analysing file XYLFA44.xml_0_30_2.sim_LP_S.cn
Analysing file XYLFA44.xml_0_30_3.sim_LP_S.cn
Analysing file XYLFA44.xml_0_61_1.sim_LP_S.cn
Analysing file XYLFA44.xml_0_61_2.sim_LP_S.cn
Analysing file XYLFA44.xml_0_61_3.sim_LP_S.cn
Analysing file XYLFA44.xml_0_92_1.sim_LP_S.cn
Analysing file XYLFA44.xml_0_92_2.sim_LP_S.cn
Analysing file XYLFA44.xml_0_92_3.sim_LP_S.cn
Analysing file YEAST.xml_0_28_1.sim_LP_S.cn
Analysing file YEAST.xml_0_28_2.sim_LP_S.cn
Analysing file YEAST.xml_0_28_3.sim_LP_S.cn
Analysing file YEAST.xml_0_57_1.sim_LP_S.cn
Analysing file YEAST.xml_0_57_2.sim_LP_S.cn
Analysing file YEAST.xml_0_57_3.sim_LP_S.cn
Analysing file YEAST.xml_0_86_1.sim_LP_S.cn
Analysing file YEAST.xml_0_86_2.sim_LP_S.cn
Analysing file YEAST.xml_0_86_3.sim_LP_S.cn
Analysing file YERPE3.xml_0_139_1.sim_LP_S.cn
Analysing file YERPE3.xml_0_139_2.sim_LP_S.cn
Analysing file YERPE3.xml_0_139_3.sim_LP_S.cn
Analysing file YERPE3.xml_0_46_1.sim_LP_S.cn
Analysing file YERPE3.xml_0_46_2.sim_LP_S.cn
Analysing file YERPE3.xml_0_46_3.sim_LP_S.cn
Analysing file YERPE3.xml_0_93_1.sim_LP_S.cn
Analysing file YERPE3.xml_0_93_2.sim_LP_S.cn
Analysing file YERPE3.xml_0_93_3.sim_LP_S.cn
Analysing file YERYP364.xml_0_144_1.sim_LP_S.cn
Analysing file YERYP364.xml_0_144_2.sim_LP_S.cn
Analysing file YERYP364.xml_0_144_3.sim_LP_S.cn
Analysing file YERYP364.xml_0_48_1.sim_LP_S.cn
Analysing file YERYP364.xml_0_48_2.sim_LP_S.cn
Analysing file YERYP364.xml_0_48_3.sim_LP_S.cn
Analysing file YERYP364.xml_0_96_1.sim_LP_S.cn
Analysing file YERYP364.xml_0_96_2.sim_LP_S.cn
Analysing file YERYP364.xml_0_96_3.sim_LP_S.cn
Max node compression: 0.9890710382513661
Min node compression: 0.6575342465753424
Max  arc compression: 0.996996996996997
Min  arc compression: 0.5581395348837209
Avg node compression: 0.8288606213256124
Avg  arc compression: 0.7658930234972716
Finished at Mon Jul 16 23:14:43 WEST 2012
