pathway;nn;nbn;stories_no;time_no;stories_pruned;time_pruned
wholeYeast_for_ALLANTOINDEG-PWY_LP_S.nel;3;2;2;0,025;2;0,0090
wholeYeast_for_ARGDEG-YEAST-PWY_LP_S.nel;3;2;2;0,024;2;0,0070
wholeYeast_for_ARO-PWY_LP_S.nel;2;2;2;0,024;2;0,0070
wholeYeast_for_BRANCHED-CHAIN-AA-SYN-PWY_LP_S.nel;10;5;308;0,379;308;0,143
wholeYeast_for_COMPLETE-ARO-PWY_LP_S.nel;9;4;27;0,080;27;0,047
wholeYeast_for_DENOVOPURINE3-PWY_LP_S.nel;4;4;2;0,028;2;0,0050
wholeYeast_for_ERGOSTEROL-SYN-PWY_LP_S.nel;7;4;5;0,048;5;0,013
wholeYeast_for_FASYN-ELONG2-PWY_LP_S.nel;5;5;7;0,041;7;0,011
wholeYeast_for_FASYN-INITIAL2-PWY_LP_S.nel;6;4;4;0,025;4;0,012
wholeYeast_for_FOLSYN-PWY_LP_S.nel;3;3;4;0,023;4;0,0070
wholeYeast_for_GLUCFERMEN-PWY_LP_S.nel;4;3;2;0,023;2;0,0080
wholeYeast_for_GLUCONEO-PWY_LP_S.nel;6;3;6;0,029;6;0,014
wholeYeast_for_GLUCOSE-MANNOSYL-CHITO-DOLICHOL_LP_S.nel;2;2;1;0,025;1;0,0050
wholeYeast_for_GLYCOLYSIS_LP_S.nel;5;2;2;0,021;2;0,0060
wholeYeast_for_GLYOXYLATE-BYPASS_LP_S.nel;8;3;6;0,027;6;0,013
wholeYeast_for_HEXPPSYN-PWY_LP_S.nel;3;3;4;0,034;4;0,0070
wholeYeast_for_HISTSYN-PWY_LP_S.nel;6;4;7;0,041;7;0,015
wholeYeast_for_ILEUSYN-PWY_LP_S.nel;3;2;2;0,023;2;0,0060
wholeYeast_for_IPPSYN-PWY_LP_S.nel;4;3;6;0,024;6;0,0090
wholeYeast_for_LYSDEGII-PWY_LP_S.nel;2;2;1;0,024;1;0,0060
wholeYeast_for_LYSINE-AMINOAD-PWY_LP_S.nel;7;2;2;0,023;2;0,01
wholeYeast_for_NADSYN-PWY_LP_S.nel;2;2;2;0,024;2;0,0080
wholeYeast_for_NONOXIPENT-PWY_LP_S.nel;2;2;2;0,026;2;0,0060
wholeYeast_for_P4-PWY_LP_S.nel;6;4;19;0,051;19;0,035
wholeYeast_for_PANTOSYN2-PWY_LP_S.nel;3;3;6;0,030;6;0,0090
wholeYeast_for_PENTOSE-P-PWY_LP_S.nel;3;3;4;0,023;4;0,0070
wholeYeast_for_PLPSAL-PWY_LP_S.nel;4;4;1;0,023;1;0,0050
wholeYeast_for_PRPP-PWY_LP_S.nel;9;7;48;7,168;48;0,026
wholeYeast_for_PWY-2201_LP_S.nel;4;4;6;0,030;6;0,011
wholeYeast_for_PWY3O-1109_LP_S.nel;5;3;7;0,026;7;0,012
wholeYeast_for_PWY3O-19_LP_S.nel;2;2;2;0,022;2;0,0070
wholeYeast_for_PWY3O-1_LP_S.nel;8;7;50;0,147;50;0,041
wholeYeast_for_PWY3O-20_LP_S.nel;4;3;5;0,029;5;0,0090
wholeYeast_for_PWY3O-2220_LP_S.nel;5;4;14;0,036;14;0,015
wholeYeast_for_PWY3O-242_LP_S.nel;5;3;4;0,022;4;0,0090
wholeYeast_for_PWY3O-261_LP_S.nel;4;4;18;0,054;18;0,025
wholeYeast_for_PWY3O-351_LP_S.nel;3;3;3;0,028;3;0,0090
wholeYeast_for_PWY3O-402_LP_S.nel;5;3;3;0,023;3;0,0070
wholeYeast_for_PWY3O-4107_LP_S.nel;2;2;2;0,027;2;0,0050
wholeYeast_for_PWY3O-4158_LP_S.nel;4;4;2;0,029;2;0,0060
wholeYeast_for_PWY3O-45_LP_S.nel;3;3;6;0,028;6;0,0080
wholeYeast_for_PWY3O-64_LP_S.nel;2;2;2;0,027;2;0,0060
wholeYeast_for_PWY3O-697_LP_S.nel;3;3;4;0,024;4;0,0080
wholeYeast_for_PWY3O-69_LP_S.nel;3;3;2;0,028;2;0,0060
wholeYeast_for_PWY3O-7_LP_S.nel;2;2;2;0,021;2;0,0060
wholeYeast_for_PWY3O-94_LP_S.nel;2;2;2;0,026;2;0,0080
wholeYeast_for_PWY3O-954_LP_S.nel;3;3;6;0,028;6;0,0080
wholeYeast_for_PWY3O-981_LP_S.nel;3;2;2;0,021;2;0,0070
wholeYeast_for_PYRIMID-RNTSYN-PWY_LP_S.nel;2;2;2;0,023;2;0,0050
wholeYeast_for_SPHINGOLIPID-SYN-PWY_LP_S.nel;5;4;2;0,027;2;0,0080
wholeYeast_for_TCA-EUK-PWY_LP_S.nel;2;2;2;0,032;2;0,0060
wholeYeast_for_THREOCAT2-PWY_LP_S.nel;9;8;32;2,199;32;0,05
wholeYeast_for_TRIGLSYN-PWY_LP_S.nel;4;3;4;0,024;4;0,0090
wholeYeast_for_TRPSYN-PWY_LP_S.nel;2;2;2;0,024;2;0,0080
wholeYeast_for_TRYPTOPHAN-DEGRADATION-1_LP_S.nel;2;2;2;0,025;2;0,0060
wholeYeast_for_YEAST-ARG-SYN-PWY_LP_S.nel;3;2;2;0,025;2;0,0060
wholeYeast_for_YEAST-DE-NOVO-PYRMID-DNT_LP_S.nel;8;5;13;0,048;13;0,02
wholeYeast_for_YEAST-FAO-PWY_LP_S.nel;3;3;2;0,028;2;0,0070
wholeYeast_for_YEAST-GALACT-METAB-PWY_LP_S.nel;2;2;2;0,023;2;0,0050
wholeYeast_for_YEAST-RIBOSYN-PWY_LP_S.nel;3;3;6;0,032;6;0,011
wholeYeast_for_YEAST-RNT-SALV_LP_S.nel;4;3;6;0,027;6;0,011
wholeYeast_for_YEAST-SALV-PYRMID-DNTP_LP_S.nel;6;5;11;0,060;11;0,019
